,uterranceID,text_transcription
0,NADYR_GULIMMP3,qolib ketdim hijron to'layurakdan sevgim lim limazobga botdim bir yo'limendi sen qaytmaysan gulimqaytib kelar uchgan qushlarbitar balki bitmas ishlarqo'llaring yo'q kimlar ushlarendi sen qaytmaysan gulim gulimendi sen qaytmaysan gulim gulimsevging aytmaysan gulim gulimbilmadim yor sensiz qachongachaog'riydi bu singan dilim dilim
1,MUHAMMADZIYO_MALIKAMMP3,мухаммадзиё - маликамsen bilan hayot mo'tadilkelsang agar quvonardimko'rib dil har kunda birsevaman senga buboraymi kutasanmi jonimgo'zalimsan lablari bolimyoqasan bilasanmi jonimsog'inaman har lahza onimshahlo ko'zli malikamsog'indim seni erkamorzuyimdasan erkamqaylardasan ayt malikam
2,IMRON_DUGONANGDANASRAMENIMP3,"eshit holim so'rashiniqiziqtirib qoldim uniqara menga qarashinidugonangdan asra menidugonangdan asra menisevgi degan poyon bilmasdo'stlikni ham nazar ilmasboshqa bo'lsa alam qilmasdugonangdan asra meniasra meni, asra menidugonangdan asra meniasra meni, asra meniqara menga qarashinidugonangdan asra menisen deb menga yaqin kelarsenikiman yaxshi bilarkim aytadi vafo qilardugonangdan asra meni"
3,"AKHA,RUHSORAEMM_НЕНАВЕЧНОMP3",больше не хочешь пониматья не знаю как сказатькаждый день как кинотеатртеперь мы смотрим наблюдаемпонимает я не знаю как сказатькаждый день как кинотеатртеперь мы смотрим наблюдаемпозируем стараемсяпытаемся не потерятьдавно забытые чувстване могу оставаться
4,SAIDUSMONMADAMINOV_KECHDIMONAJONMP3,men sevgidan kechdim onasevmayman ont ichdim onayuzimdagi devonaningniqobini yechdim onamkechdim yolg'on allalardavafosi yo'q vadalardanyordan kelgan zardalardanbarchasidan kechdim onamderdingiza sevma bolamsevgi ertak yolg'on olammenchi o'sha dardu alamsharobini ichdim onamkechdim onajonbevofolar nayragidankechdim onamyolg'on dunyo yolg'onidan
5,DILSHODBEKSADO_SOVCHILIKKAYURINGONAMP3,ko'zda yoshiz qolmadida qurib ketdiendi siz ham yuzga upa suring onadavrim kelib ishlarimam yurib ketdivaqti keldi sovchilikka yuring onao'g'lim boy deng maqtaning ham mayli tinmayboyning onasidek davron suring onahech xijolat bo'lmang endi hech tortinmangvaqti keldi sovchilikka yuring onago'zal lekin osmondagi oy bo'lmasinqora ko'zlar o'tli qoshi yoy bo'lmasinshundan kuydimku otasi boy bo'lmasinvaqti keldi sovchilikka yuring ona
6,G'AYBULLATURSUNOV_JANONAMP3,гайбулла турсунов - жанонаyuragim to'ldi manibu qalbim o'ldi mani janonako'zlarim to'ldi manishu dardga qoldi mani janonaishonib senga qaraaldanib qoldim mana janonakutganim bo'ldi yolg'onsevganim xatodir janonao' o' o' janonatelba aylab devonaaylama holim mani yomona
7,MANZURA_POMADAMP3,манзура - помадаu ketdi ketdi toshkent tomonlargaqoldirib meni gumonlargahamroh bo'libti yomonlargayomonlargaqishloqda baxtli edikyorim qanchalartoshketga ketdingyuragimni parchalabo'zgarib ketding aytnega bunchalarnega bunchalartoshkent qaytar menga yorimnikuylab dildagi zorimniaybim ne aybim nebergan edim unga man borimni
8,JAMSHIDSULTANOV_QAYSARGINAMMP3,o'zimni qaysarginamo'zimni dardisarginaminjiq bo'lavermagino'ynama asabginamhar kuni urushibtalashmasak hisobmasnozik ko'nglingni olishishon oson ish emasshunchalar erkasanshunchalar qaysarsaninjiqsan o'jarsanmenga juda yoqasan
9,YULDUZUSMONOVA_TELBADAYMP3,юлдуз усмонова - телбадайuni bedori mani oromimko'rib dilim quvonar dildorimsevgisi kulgusida oshkorimo'zingdan o'zga bo'lar ozorimdil ichra munojatim o'zing o'zingmani intizor qilar ko'zlaringuyqimni buzar o'ylar begona begonakutaman jonim sani so'zlaringtelbaday sevaman telbadayo'ylamay sevaman o'zim o'ylamaysan boqma dalli kabisevaman bitta sani aylanay aylanay
10,JALOLIDDINAHMADALIYEV_ISHQFURUSHLARMP3,жалолиддин ахмадалиев - ишк фурушларyuribmizda ko'ksimizda olov bilanyuribsizda bizni tashlab birov bilanoq tushmadi sochlarimni sovuq urdioshimizga be vaqt tushgan qirov bilanizingizda qora otli shahzodalarbo'larmidi ishqingiz biz yayov bilanbilmadingiz sezmadingiz ohimni buqor yog'madi ming topilgan qirov bilanhozir qizlar dilga emas pulga qararistasangiz o'ylab aytay garov bilansillamni sil qilib qo'ydi firoq dardiyomon ekan birga kelsa tumov bilansevgi qadrin arzon qildi ishq furushlarming bozorga solib uni chayqov bilanxasis dunyo o'z omonat mehmonininuqul siylar sovub qolgan palov bilan
11,OSMANNAVRUZOV_FALAKLARDAMP3,осман наврузов - фалаклардаinsof bormi axir sandabardosh qolmadi yor mandatingla dodima yurak oximaorom yoqoldiku mandajonim halaklarda ko'zim falaklardako'zlaringam so'zlaringam bolda axir boldayurak yomon xolda qo'yma mani yo'ldaqiynamada qiynamada ol jonimni oldamayda qadam so'zzi batan jayronqarab qarab man o'zimman hayronrashk o'tinda man yomonman laylomboshqalara boqsa dilim vayron
12,BEGZODISMOILOV_UZOQROQYURINGMP3,bog'im sizga gulzorim sizgaborim sizga bozorim sizgategib ketsa ozorim sizgabiz yomondan uzoqroq yuringo'zgarmadik hamon biz o'shatog'ri otmas kamonimiz o'shahali hamon yomonmiz o'shabiz yomondan uzoqroq yuringemas dunyo tor chekmanglar ozorbiz yomondan uzoqroq yuringbiz o'sha yomon ha hali hamonbiz yomondan uzoqroq yuring
13,DILSO'Z_BAXTTILANGMP3,eng baxtli kun deysiz aslida ularoq libosda bag'rin tig'laydi qizlaro'zidan o'tganin o'zlari bilarto'yi kuni to'yib yig'laydi qizlarqismat deya ko'nib qaygadir ketarpalaxmon toshidek qaygadir yetarpolopondek ona bag'rin tark etarto'yi kuni to'yib yig'laydi qizlarbaxt tilang baxt tilangikki yoshga baxt tilangbaxt tilang baxt tilanghamm yoshga baxt tilang
14,AJINIYAZXOJAMBERGENOV_GULNARAM2MP3,әжинияз хожамбергенов - гүлнарам 2sen magan ovulima kel deding kel dedingnomering sorasamda bermeding bermedingjur dedim qalaga sen konmdeing konmedingne qilip bereyin basqakerin sasam da bilmedin bilmedin şöimkal kedim kedim ne kıbiry sen auma kil dedim kil dedim numersasam da bilmedin bilmedin şim kalasin
15,OTABEKODILOV_QACHONOPKETASIZMENIJONBOLAMMP3,bolam yaxshi yuribsizmi men yaxshibu yerda ovqatlar issiq non yaxshilek men uchun o'sha tor ayvon yaxshiqachon opketasiz meni jon bolamfaqat bir oy degandingiz ko'ndim jimbir yildirki xabar olmaydi hech kimfarzandingiz nabiramni sog'indimqachon opketasiz meni jon bolamyig'layman yon atrofimga sezdirmaymehrga zor bo'lib qoldim boladayuyingizni qorovul bo'lib poylayqachon opketasiz meni jon bolam
16,OTABEKODILOV_BUOLIS18YOSHIMDAEDIMP3,bir bahor bo'lganda beqaror edidilga ishq olganda beg'ubor edibir go'zal kulganda betakror edibu olis o'n sakkiz yoshimda edijiydazor poyoni hech urinmasditongacha kezardik oy erinmasdibizlarga baxt tilab qushlar tinmasdibu olis o'n sakkiz yoshimda ediko'ylagi oq edi beg'ubor edimeni maftun etgan bir ifor edio'n yetti yosh qizni hidi bor edibu olis o'n sakkiz yoshimda edijiydazor poyoni hech urinmasditongacha kezardik oy erinmasdibizlarga baxt tilab qushlar tinmasdibu olis o'n sakkiz yoshimda edi
17,OTABEKODILOV_OTANINGQADRINIQAYDANAMBILSINMP3,mehnatsiz turmushga kongil boylaganelim deb koksiga mushtin urmagantortta jojasiga katak qurmaganotaning qadrini qaydanam bilsinlabda qizil boyoq egnida nimchakiygani ozi-ku tor tajang shimchachiroyiga bino qoygan oyimchayigitning dardini qaydanam bilsinishq bu kimlar uchun bir umr armonkimga hasrat kimning dardiga darmonrozgor nimaligin bilmagan nodonxotinning farqini qaydanam bilsin
18,OTABEKODILOV_JONIMONAMMP3,tiriklik g'amida ketdim safarlarzor kutingiz tunni ulab saharlargaalishtimmi sizni do'st yor sanamlargaozorlarim rohat bilgan jonim onamko'nglingizni olol bilmamxizmatingiz qiloldimmiyaxshi farzand bo'loldimmijonim onam jonim jonim onamqani endi sochlaringiz tarab qo'ysamoydek nurli yuzingizga qarab to'ysamoyda yilda oyoq qo'lin silab qo'ysamyaxshiyam siz borsiz jonim onam
19,OTABEKODILOV_KIMLIGINIBILMAYO'TASIZMP3,yoningizda yoringiz nigorbedor yana kimni kutasizsizga baxtlar tilagan bisyorkimligini bilmay o'tasizsizni chindan suygan yigitniishqingizda kuygan yigitnijoniga o't qo'ygan yigitnikimligini bilmay o'tasizzor zor dilim safforasiz birovni yori oshkorasevib sevilmagan bechorakimligini bilmay o'tasiz
20,OHUNJONMADALIYEV_SHAMOLLARUYG'ONDIBARGHAYAJONDAMP3,shamollar uyg'ondi barg hayajondahatto yer ostida qo'zg'aldi ilondunyo ko'zlarini ochayotgandaketgim kelmayapti onajono'ngirlarda kezar muzdek havolarishqalab qobog'in ko'tarar osmonmana shu bog'larni ko'rmasdan turibketgim kelmayapti onajonqizlarning ovozi kelyapti munisishq desam daftarga sachrab ketdi qonsuymasa suymapti bir chiroyli qizdunyoda qiz kammi onajonbegunoh bittadir u ham osmondaqo'lga chivin qo'ndi quvmoqqa yo'q jonchivinlar chumchuqlar yurgan jahondamenga joy yo'qmidi onajongarchand mungli qo'shiqlar aytdimgarchand azob ko'rdim mudom bepoyonmen hali dunyodan to'ygan yo'q edimdunyo to'ydimikan mendan onajon
21,SHUHRATDARYO_SO'ZLASAMP3,baxt kulib vaslingga bir imkon bo'lsasen-u men – kimsasiz bir makon bo'lsafasli gul safti ishq qamrabon bo'lsahijrondan vayrona dilim o'nglasamso'zlasang soz'lasang tinglasam.bir umr maftunman desam sen kulsangishqingda tutqunman desam sen kulsanglaylisan – majnunman desam sen kulsanghijrondan vayrona diling o'nglasangso'zlasam soz'lasam tinglasang.nigohim nigohing boylatib qo'ysakyurakni yurakka joylatib qo'ysaktil emas qalblarni so'ylatib qo'ysaklabki ul yonoqdan novvot izlasaqalb esa so'zlasa so'zlasa.so'zlasang soz'lasang tinglasam.bir umr maftunman desam sen kulsangishqingda tutqunman desam sen kulsanglaylisan – majnunman desam sen kulsanghijrondan vayrona diling o'nglasangso'zlasam soz'lasam tinglasang.
22,ABRORDO'STOV_KELMADINECHUNMP3,muhabbat mayida mastona ko'nglimkelsa yor poyida ostona ko'nglimmenga sen o'zgaga dostona ko'nglimey kelmadi ko'rmadi kelmadi nechunbilmadi ko'nglimni bilmadi nechunbu g'arib dunyoda g'amdan adomanmuhabbatlar boyu yorsiz gadomanrashkimla boshiga qattiq balomaney kelmadi ko'rmadi kelmadi nechunbilmadi ko'nglimni bilmadi nechunxazon yaprog'ida sarg'ayib so'lsamqirmizi may kabi to'kilsam to'lsamkulmanglar bir kuni sog'inchda bo'lsamey kelmadi ko'rmadi kelmadi nechunbilmadi ko'nglimni bilmadi nechun
23,ABRORDO'STOV_SOYABONOSTIDAYIG'LAYDIBIRQIZMP3,ey falak go'zal tindiri bergaylo aqal bir bor kuldirib bergayyig'lamasin o'zing ko'ndirib bergaysoyabon ostida yig'laydi bir qiznigohim so'roqlar suratini jimmayus ko'zlarida yoshlari sim simbor deydi yoniga bor deydi ko'nglimsoyabon ostida yig'laydi bir qizolarmikan bersam ro'molchamnunedan buncha kuyib chekarkan qayg'uyuragim yomon ezdi bu tuyg'usoyabon ostida yig'laydi bir qiz
24,ABRORDO'STOV_XATOBO'LDIMP3,ishqingiz kuyida kuyganlarim borpinhona pinhona sevganlarim bordillardan tillarga ko'chmadi sevgiendi siz o'zgaga men o'zgaga yoruchrashib qolamiz gohi yo'l boshnechun bo'lmadingiz umrim yo'ldoshibir bora berilgan hayotda ey vohmangu botar bo'ldi ishqim quyoshxato bo'ldi xato bo'ldibir ko'chada yashash bizga jazo bo'ldibu dunyoda bormanmi yo yo'qmi bilmamyuragim ham endi oddiy arzon bo'ldi
25,ABRORDO'STOV_ALLOHGAISHONIBCHIQQANMANYO'LGAMP3,boshga do'ppi kiyibtor olib qo'lgaezgu maqsadlarnitukanman dilgayaqinlarim mehrimuxabbati vaallohga ishonibchiqqanman yo'lgayigitman risqimniterib yuribmanmanglayida boriniko'rib yuribmando'st kimu g'animkim bilib yuribmanallohga ishonibchiqqanman yo'lga
26,ABRORDO'STOV_ERKAKNITARKETMASINOMADMP3,quvonchlarga to'lsin yo'llarihar qadamda qilsin daromaddunyo ostin ustun bo'lsa hamerkakni tark etmasin omadkutar uyda farzand ayolialloh jonin qilgin salomattaqdiriga ko'nib yashaydierkakni tark etmasin omaddardin etar yig'lay olmaydig'ururi bor tog'lardan balandxasratlari so'zlay olmaydierkakni tark etmasin omadmashaqatli hayot yo'lidako'zdan yoshi oqmasin faqatmag'rur tutsin mag'rur boshinierkakni tark etmasin omad
27,ABRORDO'STOV_ALLOHNAZARIDANQOLMASAMBO'LDIMP3,qarshimda maqtaboshim yeganlarortimdan pichog'inurmasa bo'ldimayli mendan tonsinsizdek shoqollaralloh nazaridanqolmasam bo'ldideydilar it huraro'tadi karvonlek karvon yo'lidantonmasa bo'ldiyiqilay qoqilaymayli bu zamonalloh nazaridanqolmasam bo'ldi
28,ABRORDO'STOV_LABLARINGNIBOLIDANTO'YDIRMANIMP3,roziman qancha azob bersang agarishq o'tida yondirib kuydir manitortinma ko'rishganda kel shu safar eylablaringni bolidan to'ydir manitun kecha osmonlarning adog'idako'zlaring olma ko'zim qarog'idaadashib bo'salaring sanog'idan eylablaringni bolidan to'ydir manieski bog' o'shal eski joyda tayinkutaman soat emas lahza sayinlablarimni kuydirib olovdayinlablaringni bolidan to'ydir mani
29,ABRORDO'STOV_KECHIKKANSEVGIMMENINGMP3,"o'rtamizda yillar devoriintigadi ichikkan sevgimyuragimni ezar zavolisevgim mening kechikkan sevgimxasis dunyo, befavo dunyobir go'zalni ko'rmading ravomen dunyoga erta keldim yosevgim mening kechikkan sevgimnima g'amdir nimadur quvonchnahot taqdir topolmas ilojbahor o'tib kelgan qaldirg'ochsevgim mening kechikkan sevgimdilda o'lgan yolg'izimmidingmen izlagan yolg'izimmidingqo'lim yetmas yulduzimmidingsevgim mening kechikkan sevgimtatimaydi bu dunyo sensizyer yuzi tor osmonlar ensizmenda jon yo'q sen yasha mensizsevgim mening kechikkan sevgim"
30,ULUG'BEKYULCHIYEV_HMKO'ZLARIBEJOMP3,ko'zlaring eslatar bodomnisevging jinni qilar odamnionang seni rostini aytginshakar choyga botirvoganmiolma olib berinmaanor terib berinmatoqqa chiqib sen uchungullar terib kelinmasen ham meni sevasanahm ko'zlari bejo
31,NURZIDAISAYEVA_KO'KJIGULIMP3,"alvon alvon gullaring olibatrofingga nazarlar solibmahallaga kelar edingmusiqani qo‘yvolibhali hamon yodimdaqolgin deding yonimdaseni jondan sevgandimeng gullagan onimdako‘k jiguli ko‘m ko‘k jigulieslatadi sevgimizni ex jiguliqo‘shni guli, qo‘shni guliqizg‘onardi seni mendan o‘sha guli"
32,SAMANDARERGASHEV_O'ZGAUYGAYORMP3,men gulimga yetolmadimvisol otdi toshlarinkambag'alga kim qiz berarboy bolasi turgandato'yi bo'ldi oq libosdako'rib ko'zda yoshlarimyetishmoqlik uchun menrassiyada yurganimdauzatishdi gulimniko'zlarida yosh bilanmahallaning ko'nglin xushlabikki lagan osh bilansovuq yurtning qorlarinioz bo'lsa ham eritganmen chiqoldim o'sha qorlareritgan ko'z yosh bilankuydi dilim dilimqon yig'ladi zor endigulim gulimo'zga uyga yor bo'ldi
33,MIRJALOLNEMATOV_TAKTAKMP3,tak tak seni ko'rsam quvonamantak tak gullar terib yuboramantak tak o'zimniki qivolamantak tak tak tak tak takmajnun tolga suyanibko'zim bir sen tomondalablaringni burvolibyo'q deyishing yomondaqishlog'inga boraymuxatirchida qolaymu18 yosh bo'lvolibyuragimga kirvolibnozlanishga gerdayishga o'laymusog'inganda ko'z yoshlaringtomchilaydi chak chak chakmeni ko'rsa chehralaringochiladi chak chak chaknega endi tan olmaysansevasanu tak tak taktentak tentak tak tak tak
34,GULINUR_SO'NDIMP3,tuyg'ular so'ndi so'ndi so'ndio'ylamang bo'ldi bo'ldi bo'ldisanam gechding manam gechdimko'zlar yoshan do'ldi do'ldixato bo'ldi manda sandaayb bo'ldi manda sandasevmasadim sevmasadimayrilishni bilganimdagetdi san bilan orzularbosdi yurakni qayg'ularbir pasta so'ndi so'ndi so'ndio'ylamang bo'ldi bo'ldi bo'ldiyurakda qancha tuyg'ular
35,IZZATBEKQO'QONOV_XATOQILDIM(NEWVERSION)MP3,muhabbatni dunyosikeng dilimga tormisansuyganim gunohimdabir umrga bormisanmen suyib xato qildimmen kuyib ado bo'ldimbir go'zalning ishqidao'zimni ado qildimey egilgan osmonimuzun tog'day bos manimyulduzlarni dor qilibko'zlarimdan os manim
36,UZMIR&MIRA_JONGATEGIBKETDIMP3,nolalaring jonga tegib ketdiqilmishlaring boshim egib ketdibalkida gaplarim ham tegib ketdiyolg'onlaring jonga tegib ketdiazoblaring tandan o'tib ketdiohir mayus qalban cho'kib ketdimbilmadim kimlani baxtli qilish uchun qayerga ketdimseni yolg'iz qoldirib maqsadimga yetdimtunlari gunohlarimga ishon afsuslar etdimhohlagan tomoninga ochiqchasiga aytaman ketavero'ylagan orzularga o'zga bilan yetaverboshqa nima qilarding meni yolg'iz etaver
37,ABRORDO'STOV_ZULAYHOMP3,yo'lingizga zor tikilgan ko'zim qoldiyuragimda dard alamda to'zim qoldisevib turib ishqim sizga aytolmagantil uchida bittagina so'zim qoldiko'zlaringiz ko'z o'ngimda ketmagandursizni o'ylab qancha tonglar otmaganduryoningizga borib shartta so'z demoqqanima qilay hech juratim yetmagandurzulayho zulayho armonginam zulayhodilda armon ko'zimda yosh qolgan ekanozoringiz ming bir o'tka solgan ekanqo'lim cho'zsam yetmagandi keyin bilsamboy bolasi aqlingizni olgan ekan
38,DOSTONERGASHEV_ZO'RLARIBORMP3,nolimagin xoru zorman debsendan ko'ra xo'rlar borkerilmagin tanho zo'rman debsendan ko'ra zo'rlari borberilmagin ayshu xumorgaumringni berma qumorgaboshing tekkanida devorgatavba qilsang yo'llar borsendan ko'ra zo'rlari borsendan ko'ra ey zo'rlari borsharoblarga yurma cho'milibxaromdan yeb ketma semiribketasanda bir kun ko'milibochiq mozor go'rlar bor
39,XAMDAMSOBIROV_MALOHATMP3,ko'zim zulfizarda hayollaridasochlari anvardur shamollaridaikki yuzi qizargan uyalganidayurakkinam azoblaridaariqning bo'yida bo'yida bo'yidamaysalar ochildi maloning uyidakecha rasa o'ynabmiz sadirning to'yidako'zlarim chaqnaydi muhabbat kuyidamalohat malohatmenga bermagin jarohatyuragimning davosiyey malohatbiz kezgan adirlar gullada bog' bo'lditog'larni aylandik ko'ngillar chog' bo'ldibinafsha terib beray ashulay aytib berayshu qiz yuragimga dog' bo'ldi
40,SHOXRUZ(ABADIYA)_SINFDOSHMP3,u meni sog'inardi xatlar yozardimaktabdagi sevgilimbugun ayrilamiz xayr maktabimxayr sinfdoshlarimnahot endi sog'inib yuramiz maktabnisog'inamiz bir birimiznisog'inamiz bolaligimizniesingdamisen uchun hamma darsga kirardimdardsdan keyn kuzatib qo'yardimunutma maktabdagi sevgimsinfdoshim
41,ABRORDO'STOV_SHERLARARSLONLARMP3,bazan qolar do'stning kasrigaduch kelganda dushman qastigabo'yin egmas nomard pastigasher bolasi sher bo'lar ekanko'z tashlamas birov mulkigateng qilmaydi o'zin tulkigaqoldirmaydi o'zin tulkigasher bolasi sher bo'lar ekaneh sherlar arslonlarbizning zo'r qadirdonlar
42,SHERZODBEK_TO'KILDIMP3,yorim meni aldab netasankeragimda nega ketasanbilaturib atay qiynaysansen meni ey yorva'dalaring seni yolg'onmidimenga bo'lgan sevging soxtamidiyoki aytgin ko'ngling o'zgadamidijavob ber menga ey yorto'kildi to'kildiko'zda yoshimsevgim osmonidanketdi quyoshimunutaman deymanlek unutolmadimyetmadi bardoshimqolmadi madorim
43,NIGINAISMOILOVA_BOLIMSANMP3,shakarimsan bolim bolim bolimsansan yuragim jonim jonim jonimsanshakarimsan bolim bolim bolimsansan yuragim jonim jonim jonimsanoy go'zlari qorayuragim qilma porabolim bolim bolimsanjonim jonim jonimsanoy go'zlari qorayuragim qilma porabo'ldim devonabo'ldim devonabo'ldim devonabo'ldim devonasuyukli yorim borumidli yorim borbir intizorim borsanga ehtiyojim borsuyukli yorim borumidli yorim borbir intizorim borsanga ehtiyojim bor
44,YULDUZUSMONOVA_KECHALARMP3,юлдуз усмонова - кечаларbor eding yor hayollardaqalbimdagi savollardaqoldik nechun armonlardaaytgin nima bo'ldidil yig'laydi yolg'iz qolibyuraklarga dardni solibqucholmayman endi boriblek bilmam nima bo'ldikezar edik biz kecha kecha kechalarso'zlashar edik necha necha nechalarogohmidi bizga o'sha o'shalarbizga nima bo'ldi
45,ABRORDO'STOV_O'LDIRMAYAO'LDIRMAMP3,izlab izlab kechalariboray desamoyday to'lin yuzlaringniko'ray desamyuzlaringdan bittaginao'pay desamo'pay desamo'pay desambah bah bahnozlar qilib meni adobo'ldirmaye bo'ldirmaye bo'ldirmavisolinga yetmay turibo'ldirmaye o'ldirmaye o'ldirmanahot bugun labingdan tortmasmantonglaringda quyosh bo'lib otmasmansen yo'q desang men ham endi ketmasmanaketmasmaney ketmasmanaohay olov olov yuragimniyondirmaye yondirmaye yondirmayevisolinga yetmay turibo'ldirmaye o'ldirmaye o'ldirma
46,BESTGURUHI_QIZG'ONAMP3,ko'cha salqin yomg'ir yoqqanko'zchasida tomchi oqqanhayol surib bekatda bir qiz turiptiertalabdan meni kutibavtobusni o'tkazvoribsevmayman deb o'zini aldab yuriptihayolida men bo'lsam kerakyuragida men bo'lsam kerakqizg'anishimni bilsa kerakyana hayajonda turiptiqizg'ona qizg'ona qizg'onaoshig'ingman telbangmanrashkimni rashkimni keltirmachorlasangda kelmaymandevona devona devonangxatlar yozdim ko'rmaysanismingni yurakka yozganmannazaringa ilmaysan
47,JASMIN_RO'PARAMDAMP3,ro'paramda o'tirarqoshlari barno yigitsenga bo'lsin yuragimey ko'zi shaydo yigitnigohing otash seningvoh ichimni yondirarqarab qarab bu ko'zlarimlablarimni qondiraqarab qarab bu ko'zlarimyuragimni yondirarro'paramda ro'paramdaro'paramda o'tirarqoshlari barno yigitro'paramda ro'paramdaro'paramda o'tirarqoshlari barno yigitmen uchun atalganjonim yorimsanhayotim bahoridilda borimsan
48,ABRORDO'STOV_UNUTISHGAULGURDINGQACHONMP3,jondan ortiq sevardim senihayolimdan ketmaysan hamonbilolmadim bunchalar meniunutishga ulgurding qachonko'z yosh yuvmas alam dog'larnixazon qoplar bahor bog'larninahot o'shal chog'larniunutishga ulgurding qachonqachon qachon qachonunutishga ulgurding qachon
49,ISMAIL_QITMIRCHAMP3,alam bilan o'tib ketdi yillarim manibu yurak shu qizdan boshqasiga ko'nmadibedorlikda o'tib ketdi tunlarim manibu qitmir man uchun bir bora bedor bo'lmadihech qanday tasodif sen kabi go'zal bo'lmaganko'ngillarim ancha muncha go'zallarni suymagansizni bir sevsak ko'ngil bersez baxtli bo'lsek degandimhali yuragimda sandakasi bo'lmaganbu qiz qaysi mamlakatni malikasikinyuraklarim faqat uni degani deganbu qitmircha qaysi bog'ni gulginasikinyuraklarim faqat uni sevgani sevgan
50,HILOLASAMIRAZAR_KELAZIZIMMP3,yurak unga ayt shu mehrim borliginiyurak unga ayt dil unga zorliginiqalbimda faqat muhabbat borliginiyurak unga ayt undan umid borliginine qilay sog'inaman hayolingla ovunamanyo'qsan jonim kechalar sensiz man ovunamanu yonimga kelolmaydi men ham kechib borolmaymano'rtada sevgimiz sarson anglolmaymankel azizim qaytamiz o'sha kunlargakel azizim qo'limiz berib qo'llargakel azizim nuqta qo'yib alamlargaqaramayin odamlarga yana birga bo'laylik
51,SHOXRUXBEKERGASHEV_ONAMNINGSOCHIDAOQLARNIKO'RIBMP3,o'tkinchi dunyoni ortidan quvibdunyoni kezdima ko'ksimni keribbugun ostonadan bir qadam qo'yibpinhona yig'ladim ich ichim to'libonamning sochida oqlarni ko'ribyuragi ezilgan yo'limga qarabdostu yaqinlardan holimni so'rabsog'inchdan bosh egib qolibdi nurabko'rdimu shu ondan tiriklay so'ldimonamning sochida oqlarni ko'ribqo'llarida hassa yuragi yarimdunyoda yagona g'amxo'rim maniezilib ketyabman o'ylagan saripinhona yig'ladim ich ichim to'libonamni sochida oqlarni ko'ribegildim boshimni devorga uribonamni sochida oqlarni ko'rib
52,AYOMIDDINJO'RAYEV&MAMURAQOBILOVA_SAVOLLARMP3,ko'chamizdan o'tib ketar bir qizqadam bosib yurib kelar taq taqyo'lin to'sdim berib men savoldedi savolizga javob yo'qko'chayizdan o'tib ketamanbiroz titrab qo'rqib o'tamanyo'lim to'sib demang siz savolsavolizga baribir javob yo'qsavollar savollar berdim savollarsavolimga lekin javob yo'q yo'q yo'qsavollar savollar bermang savollarsavolizga lekin javob yo'q
53,FIRUZRUZMETOV_BOSHIGAYOSTIQQILSINMP3,yangi boy yon bosibdi ko'zginasinyuragim ezdi bugun so'zginasisovchimni mensimayin qaytaribdiboshiga yostiq qilsin qizginasin.u meni sevardi men bilar edimoldiga jonim peshvoz qo'yar edimmen ham uni jondan ortiq sevar edimboshiga yostiq qilsin qizginasin.bizni mensimagan ona didlariga o't tushadiafsuslarda qolib hali oyog'izdan o'pishadiko'zlarizni yoshlarini arting ona yig'lamang hechodam mensimaslikdi hali mendan ko'rishadi.ammalari bizni zoti pas deb bilarkatta ketgan kesar edim tilginasinqimmat qizni zottoriga beribdilarboshiga yostiq qilsin qizginasin
54,ABDULLAQURBONOV_BOLAMMP3,абдулла қурбонов - боламmadorim qolmagan keksa onimdaazob beradi sog'inch qonimdadunyolarni unut ko'zimga qarabbolam bir oz o'tir mening yonimdakerakmas holvayu non patirlaringkerakmas eng qimmat bu atirlaringsog'inib qolganman erkaliklaringbolam bir oz o'tir mening yonimda
55,JONIBEK_SANAMJONMP3,yurakkinam yig'lar bugun jon alamjonoyday kelin bo'ldingmi yor qosh qalamjonketayapsan vadalarga vafo qilmaymeni aldab nima topding eh sanamjonorzularim oqib ketgan soylar yig'larkechalari osmondagi oylar yig'larbilmaysanda ko'ksimda bir joylar yig'larmeni aldab nima topding eh sanamjonyuragimdan isming olib ket sanamjonhayotimni kuydirdinga eh alamjonseni uchratmasam jonim yaxshimidimeni aldab nima topding eh sanamjon
56,ABRORDO'STOV_GULIMSANMP3,yig'lama jon muhabbatdardlaringni olay mannima bo'lsa ham faqatyonginangda qolay manyorga nolam yetmaydihuddi atay qilgandayko'chamdan ham o'tmaydigulim gulim gulimsanmeni jonu dilimsanjondan ortiq sevganimyagona sevgilimsan
57,ABRORDO'STOV_TENGSIZIMTENGINGIZTOPILMADIMIMP3,qalbimni qabirga qo'ygandan buyonsizga baxt eshigi yopilmadimimenga taqdiringiz bo'lmadi ayontengsizim tengingiz topilmadimibizni ko'chamizda yoqanda qorlarsizni deb chekanda g'amu ozorlarvafo qilmaganda bevafo yorlartengsizim tengingiz topilmadimivafo qilmaganda bevafo yorlartengsizim tengingiz topilmadimiqadrimni yer bilan bitta qiluvdizmeni yer o'zizni osmon bilovdizqancha oshiqlarga armon boluvdiztengsizim tengingiz topilmadimiqancha oshiqlarga armon boluvdiztengsizim tengingiz topilmadimi
58,AZODA_TUNYARIMMP3,telefoni o'chganqilmaydiyam qaytibyuribdida qaygadurkimdur bilan daydibsoat ham 1 bo'ldiplanlar ham o'ldinima qilsa bo'ladisabr kosam to'lditun yarim tun yarimuyga hecham kelmaydiko'raman bugun hamqani qanday bahona izlaydi
59,OYBEKAHMEDOV_DO'STMP3,do'st ne kunlarniko'rmadik birgaey do'st ne ko'chagakirmadik birgado'st meni tashlabketmading hech hamdo'st seni tashlabketmadim men hamayirmoqchi bo'ldibizni yomonlarayirmoqchi bo'ldiqoshi kamonlar
60,JALOLIDDINAHMADALIYEV_KELKELKELGULIMSOG'INGANMANMP3,bahorlardek tashriflari xushyo qishlardek qorlari kumushsog'inchlaring eng og'ir yumushkela qolsang bo'lmasmikinaoshkor aytmoq sedida orimevaziga beraymi borimhammadanam chiroyli yorimkela qolsang bo'lmasmikinakel kel kel gulim sog'inganmansog'inganman ey sog'inganman
61,SHOXRUZ(ABADIYA)_QALAMQOSHMP3,yuravering sal narrodayuragimdan uzoqroqdahammasiga ko'ngan bu ko'ngilxiyonatda ko'nmayaptidategib ketida jonimgakelaverib hayolimgako'zlarim bilan ko'rdimkugulim o'zgani bag'ridaqalam qoshli yorim mani mani xayr endichin yurakdan sevgandim sevgandim siznixiyonatiz nuqta qo'ydi sindiku sevgishirin so'zli yorim mani mani xayr endi
62,DAVRONERGASHEV_ALVIDOMP3,даврон эргашев - алвидоdilga bir nido to'laryuragim ado bo'lariltijo bo'lib faqatko'ngildan sado kelarammo o'rtada sahroayriliq dillar aroayrildik yo'llarimizbo'ldik ikkimiz beqaroralvido yuraklar bo'ldi adoalvido sevgimiz edi xatounutilmas xotira borbu dunyo ichra dunyoqoldi bir zulmat aroqoldim sensiz tanho
63,SHOHIMARDONTAGAEV_DADAODAMLARGANIMABO'LYAPTIMP3,dunyolarga qaradim sizdekdunyo kular nomussiz qizdekqalblar qarang tafti yo'q muzdekdada odamlarga nima bo'lyaptinurab borar bag'ri keng tog'larko'paymoqda oila ham dog'larbog'boni yo'q egasiz bog'lardada odamlarga nima bo'lyaptiyelka ochiq qizlarni qaranghirsga to'la ko'zlarni qarangasablar ham bo'ldiku tarangdada odamlarga nima bo'lyapti
64,ABRORDO'STOV_PARIZODAMP3,yolg'izim tengsizim deymu senisamoda yulduzim deymu senibir lahza hayoldan ketmading malakbunchalar devona aylading meniyuzlaring oymikan lablaring g'unchaaqlimdan ozdirib qo'ymagin bunchakechalar oromim yoqoldi bilsangbir seni o'ylayman tonglar otgunchaparizodam malagim durdonamparizodam malikam xumoram
65,XOJIAKBARRUZMETOV_OQIBATMP3,yaxshi yomon kunlar boroq va qora yo'llar borxatolarning dastidansinib ketgan dillar bororqaga qaytmaydiganyaxshi so'z aytmaydiganyuraklarga sanchilganmahzun mahzun yillar borkim baxtidan ayrildikim qanotin qayirdikim umrini sovurdidavom etar yo'llar boryo'qolmasin oqibatozgina o'ylang faqattopasiz albatta baxtidantun ortidan nurlar bor
66,MUHRIDDINXOLIQOV_PARIRO'YSANAMLARMP3,pariro'y sanamlar aqlim olsalararmonlar dilimga g'ulu solsalaroh desam ohlarim yetib borsalargo'zal dildorgayey o'shal dildorgaishqing osmonida quzg'unlar uchsaismingni bahorlar guldan so'rasamen emas sevgimni hayollar quchsabu jonim halakda jonim halakdabuzulib biz qilgan ahdu paymonlarko'nglimdan suv ichib o'sdi hijronlarmeni olib ketdi huru g'ilmonlarosmonu falakka osmon falakkasen bosgan izlardan
67,MIRJALOLNEMATOV_BIRMUSIQAMBORTIRINGTIRINGMP3,dalaga chiqib soyaga chiqibpanaga chiqib kel kel kelmeni sog'inib soylardan o'tibsherlarim o'qib kel kel kelsamo kabi keng dunyolarga tengkuyladim oddiy tiring tiringbir musiqam bor tiring tiringqoyadagi gul bog'lardagi gulqo'limdagi gul gul gul gulsenga beraman ko'rshamiz kelsayraganida bul bul bulo'ynab beraman kuylab beramanqilamizku ring ring ring ring
68,IZZATSHUKUROV_VAFODORIMMP3,shunday go'zal shunday nafissanarazing ham yoqimli ishonyuz bursang ham menga azizamhayolimdan ketmaysan tamomhijronli kun cho'zilar yomonsensiz yurak ezilar yomonko'zdan uyqu uzilar yomonhayolimdan ketmaysan tamomvafodorim mani ilk bahorim manivasling qumsab giryon yuragimvaslinga to'ymoqda yuragim
69,MIRJALOLNEMATOV_GULILOLAMP3,dunyolarni his etaman men u bilanqayga desa jim ketaman men u bilanlekin bitta muammo borda men bilanu go'zalni ismin hamon bilolmaymanshirin shirin ekan uni atirlaritotli totli ekan yopgan patirlarishoi ro'mol o'rab o'tdi yonginamdantishlay desam yopiq ekan quloqlariguli lola setorarayhon marjon bahoraismingni ayt oshig'ingman toborashirin go'zal anorashahrizoda gulnoraisming bilmay ovvoraman ovvora
70,BARHAYOTUMAROV_ARZONSOTIBSANMP3,bu o'tkinchi dunyolardao'zingni arzon sotibsanmeni o'ylamay bevafoxiyonat o'qin otibsanshayton yo'ldan urdimiyo ustimdan kuldimiiymoning jim turdiminafsing g'olib keldimisenga kerak edimi mana pullarhar kuni kerak edimi yana gullarmenda ham bor endi mana o'sha pullarpulni deya kechib ketdi qancha gullar
71,OTABEKMUTALXO'JAYEV_OSHIQYURAKMP3,oshiq yurak ko'na olmaydiayriliqqa chiday olmaydisen shunchaki ko'ngan bo'lsangmeni sog'inch tark etmaydidardlarim ham tugab bitmaydinima qilay telba yurakunga faqat o'zing kerakholim ko'rib yig'lar falakosmon yig'lab hech tinmaydisog'inchlarim tinim bermaydisen mendan kechgan kuning o'ldimikuzgi hazonlardek qara so'ldimiado bo'lib yonib yonib kuydimisenchi deding menga nima menga nima
72,BAHODIRNIZOMOV_BILARMIDIMP3,yolg'onlaringa ishontiribvijdonsizim aldab yuribsanyolg'oninga mazza qilibbilmaganday kulib turibsanishq yo'qmidi boshqa sengasevgini oh o'yin qilibsano'z o'zingni muhabbatgaafsus afsus uvol qilibsano'ziga vafo qilmaganmanga vafo qilarmidio'z qadrini bilmaganmani qadrim bilarmidi
73,FURKATMACHO_SALAMALEYKUMMP3,uchma yarim san pullarahayran qoldim ba'zi bollaraogoh bo'l san bu dunyodashaytona do'st bo'lg'anlarasalam aleykumsevgidan yonganlargasalam aleykumhayotdan to'yganlargasalam aleykumosmonda yurganlargasalam aleykum
74,DOSTONERGASHEV_TOPOLMAYSIZMENDEKKINAMP3,достон эргашев - тополмайсиз мендеккинаyoqmas sizga iltifotimqalbimdagi ehtirosimjichcha seving sevgim haqqisizdan shu bir iltimosimqay oshig'iz mendey o'taryomg'ir qorda yo'liz kutarishq bog'ida o'zim g'olibchin oshiqlar doim yutartopolmaysiz mendekkinasevavering jindekkinao'ylab ko'ring mindekkinasevavering jindekkina
75,DILMURODSULTONOV_JONIMMP3,дилмурод султонов - жонимhey jonimko'nglimni ko'nglimni qiynading mani jonimyuragimni yuragimnio'ynading mani jonim hey jonimsevgini ko'nglima joylabkelmadi mani bir o'ylabqiynadi shu mani aldab aldabyuragim yonar eyniyyatim yoninga bormoqlabingdan bir bo'sa olmoqbir kuni yoningda qolsam jonimqalbim to'lar ey
76,ULUG'BEKSHOMURODOV_KIMDEYAMP3,bugun tushumga keldisog'inib yig'lab keldibahorning gullarinimenga tasvirlab keldio'ngimda ham kel bir boryuragimga yog'ar qoruchrashganmiz so'ngi borafsus bekorkim deyayashayman bu dunyoda kim deyaagarda sen qaytmasang kim deyakim seni sevar faqat men deya
77,SHIRIN_YOQARKO'ZLARIMP3,yoqar ko'zlari daryobo'lar ko'nglimda paydoso'zlar manim nigohimbunchalar go'zal dunyotingla so'zlarim samoto'lib ko'kda oymomomayli so'zqiyna jonimnimuhabbat bo'lsa xatooh bu dil shunchaki yonib qolmassevgan ko'ngil misoli durki olmosmuhabbatda kechmaydilar shunchakidavosi yo'q dard bu malham topilmasmuhabbatda kechmaydilar shunchakidavosi yo'q dard bu malham topilmasyoqar ko'zlari daryobo'lar ko'nglimda paydoso'zlar manim nigohimbunchalar go'zal dunyotingla so'zlarim samoto'lib ko'kda oymomomayli so'zqiyna jonimnimuhabbat bo'lsa xato
78,GULASAL_YOVUZMP3,qora ko'zlar chorlaydi mani yona yonashirin so'zlar o'ziga qildiku devonaishonibman yolg'onchi yorning so'zlarigaaldanibman aldoqchi yorni ko'zlarigayuragimdan hech bir xabaring yo'q yo'qyuragimga tekkandi sen otgan o'qnecha yillar o'tsa ham qiynaydi hanuzhayotimga ayt sen nega kirding yovuzmayli sen olsang yuragim parchasinmayli sen olsang xotiram darchasinmayli sen olsang hayotim barchasinmayli sen olsang yonimda qolsang
79,YODGORMIRZAJONOV_LABLARIMP3,oy yuzingni kulguchingniko'rsat menga go'zal jamolingniqiynamagin meni tark etmaginsevdim o'sma qo'ygan qoshingniqancha kunlar yo'q oromimkelolmayman o'zimgao'shal go'zal kechalarikirib chiqar tushumgavo lablari shirin bolligimvo kiprigi dona bolligimvo qomati go'zal chiroyligimvo oltinu kumush boyligim
80,MIRJALOLNEMATOV_TENTAKKINAMMP3,og'riyapti endi qara yurakginamsen bir yolg'on tush edingmi ertakginamyolg'onlarga ishondingmi aytsalarchiaxir senga men ishonsam tentakginamxasratimni oq qog'ozga to'kib yozdimishq qayirgan yuragimni bukib yozdimsarg'ayotgan xazondek to'kilib yozdimmukofoting yuragimga qabr qozdixasratimni oq qog'ozga to'kib yozdimishq qayirgan yuragimni bukib yozdimsarg'ayotgan xazondek to'kilib yozdimmukofoting yuragimga qabr qozdio'xshatardim ikki yuzing giloslargao'xshar edi ikki ko'zing olmoslargaayt ne uchun o'rtadagi muhabbatnisen almashding ayt ne sabab qog'ozlarga
81,ULUG'BEKSHOMURODOV_O'ZGAYORQUCHOG'IDAENDIMP3,qara qanday kechar holimhijron va baxt o'rtasindaqancha ozor chekib yorimayriliq ahd o'rtasidaqara qanday kechar holimhijron va baxt o'rtasindaqancha ozor chekib yorimayriliq ahd o'rtasidasen o'zga yor quchog'idamen alamlar o'chog'idatirnar tanam har kun yorarmonlar yuz quchog'ida
82,MALIKARAHMONOVA_SENSIZMP3,bu dunyoda qancha gul bo'lsabarchasi yantoq bo'lar sensizbaxt tomonga bitta yo'l bo'lsamen u baxtga yetmayman sensizbilinmaydi yozu bahorlarto'rt fasl ham kuz bo'lar sensizbilmam kimni qanday dard qiynarmeni yomon qiynadi sensizsensiz bahorlar gullashmas sensizsensiz yulduzlar nur sochmas sensizmarjonlar dur emas sensizhayotim zo'r emas sensiz
83,SHERZODERGASHEV_SOG'INSAMOTAJONIMMP3,sog‘insam otajonim izlayin qayerlardan?sog‘insam otajonim izlayin qayerlardan?sog‘insam nurjahonim izlayin qayerlardan?hovlimiz sahnasida izlari qolganmikan?o‘g‘lining oq yuzida islari qolganmikan?yo ko‘zgu nigohlari payt poylab turganmikan?sog‘insam otajonim izlayin qayerlardan?dasturxon yozilganda ne'matlar to‘kiladitikilib o‘ltiraman yuragim eziladiko‘ray deb anorlar ham chokidan so‘kiladisog‘insam otajonim izlayin qayerlardan?sog‘insam nurjahonim izlayin qayerlardan?
84,BAHODIRNIZOMOV_QO'RQMAMP3,sevib seni charchash mumkinmiyuragimni ezib netamanuzimni tark etaman lekqanday seni tashlab ketaman.bu yuragim urishi uchunkerak axir seni ko'rishimisbotlashni hohlamayman yo'quzi bilsa bo'ldi sevishim.qo'rqma seni azoblardanbutunlay o'zim olamanqo'rqma bir umr yoningdayolg'izing bo'lib qolaman
85,SHERZODBEK_QAYTYAPMANONAMP3,duo qilib yo'lim so'raganbedor tunlar meni qumsagankelishimga non yopib qo'yganonamning yoniga qaytyapmanshuncha kutib tolmaganyo'llarimdan ko'z uzolmaganmeni o'ylab o'zin unutganonamning yoniga qaytyapmanqaytyapman ona qaytyapmanyillar o'tib qaytyapmanqaytyapman ona qaytyapmanyoningizga qaytyapmanbilyapman ona bilyapmansog'inchingiz bilyapmanqaytyapman ona qaytyapmanbag'ringizga qaytyapman
86,JALOLIDDINAHMADALIYEV_O'ZINGCHAMP3,olmosning ham narxi borbe bahosan o'zingchamen kim nima farqi borxurliqosan o'zingchamenda aqlu hushing hammendek og'rir tishing hammensiz kechmas tushing hambe parvosan o'zingchasenga mahkum emasmansendan mamnun emasmangarchi majnun emasmansen laylosan o'zingchao'zingcha sen laylosano'zingcha sen tanhosanmenga nima farqi borxurliqosan o'zingcha
87,ISKANDARERGASHEV_ALVIDODEDINGDAMP3,hayratda qoldimko'rib sevgingni qalbingdacharchadim toldimtutib taqdir sharobinibizdan sevgi hamqizg'anmoqda salomininetay ayriliqaytib ketdi sarobinidardlarga mahkum bo'ldidilim dilim dilimsevgi deya kuydi o'shamajruh dilim dilimshunchaki yolg'onichida qoldimsevgi bobidapand berdiku no'noqligim
88,ORTIQOTAJONOV_BOSHQACHAMP3,"hijronida o'rtaganmi sizni ishq,na kuylara solmas yigit-qizni ishq.hijronida o'rtaganmi sizni ishq,na kuylara solmas yigit-qizni ishq.birovlarning sevgisiga o'xshamas,saodatli, sadoqatli bizni ishq.birovlarning sevgisiga o'xshamas,saodatli, sadoqatli bizni ishq.o'ynab-kulib muhabbatning o'tida,ikkimizning yonganimiz boshqacha.ishq o'ynashib lablarimiz bolidan"
89,NURZIDA&SHERZODIBROHIMOV_RAMAZONKELDIMP3,so'zim boshlab assalomkirib keldi ramazondillarni quvontiribhush kelding sen ramazonyaxshiliklar oyi buquvonch baxtning koni bushodiyona kundur bumarhabo yo ramazonramazon keldi ramazonhush kelding sen ramazon
90,MIRJALOLNEMATOV_QO'LIMDARUBOBMP3,buncha noz qilasan sevishim bilasannozlaringdan to'yib bo'ldimnega yana kelmay dardlarimni bilmaykuydirding a kuyib bo'ldimosmonlar oshig'i ko'ziga ko'zigaoy havas qiladi yuziga yuzigashuncha qiz turganda o'ziga o'zigao'lar bo'lsam o'lib bo'ldimo'p o'p o'p qo'limda rubobtaraladi kuy yaralaridano'zimni qushcham go'zal chumchuqchamdavraga tush o'yna qo'limda rubob
91,RAVSHANSOBIROV_BIRINCHISEVGIMMP3,yoshligimda eding birinchi sevgimmaktabda esimda sevgi ishorlarimesingdami sen uchun yozgan qo'shiqlarimketmas yodimdan meni ketmas qalbimdansen eding birinchi sevganimsen eding men edim bilganimyoshlikda qolgan birinchi sevgilimnecha yillar o'tsa ham yodimda sen edingko'z oldimda visoling seni kulishlaringesingdamu sen uchun yozgan qo'shiqlarimketmas yodimdan meni ketmas qalbimdansen eding birinchi sevganimsen eding men edim bilganimyoshlikda qolgan birinchi sevgilim
92,JASURBEKMAVLONOV_SOLDIBOSHIMGAMP3,aldadi yomon yo'q ekan vijdonkelsa quvongan o't bo'lib yongano't bo'lib yongan men o'sha yongan men men menso'zidan tongan sevgimni ko'mgan sen o'sha sen o'sha sensoldi boshimga soldi boshimga g'avg'olarni u u usoldi boshimga yosh boshimga savdolarni u u ualdadi yomon yo'q ekan vijdonkelsa quvongan o't bo'lib yongano't bo'lib yongan men o'sha yongan men men menso'zidan tongan sevgimni ko'mgan sen o'sha sen o'sha sensoldi boshimga soldi boshimga g'avg'olarni u u usoldi boshimga yosh boshimga savdolarni u u u
93,SHOHSANAMXOLMIRZAYEVA_MAYLIMP3,sen meni o'zingga teng ko'rolmasangseni sevganchalik sen sevolmasangmenga endi vafodor yor bo'lolmasangmayli seni mayli unutganim bo'lsinuchgan bo'lsang oy yuzli ul sanamlargako'mgan bo'lsang meni dardu alamlargamuhabbatim aytib endi qalamlargamayli seni mayli unutganim bo'lsinmayli mayli unutganim bo'lsinmayli meni unutgan bo'lsang maylimayli seni mayli unutganim bo'lsinmayli meni unutgan bo'lsang mayliko'z tegdimi bilolmadim sevgimizgabaxt degani qaramadi ikkimizgayor yor aytib kelolmasang uyimizgamayli seni mayli unutganim bo'lsin
94,YAHYOBEKMO'MINOV_KELMAYSANMIMP3,bahor bergan armug'onimko'nglimni olgan mehmonimbahor bergan armug'onimko'nglimni olgan mehmonimyuzi gul shirin zabonimbir bor yo'qlab kelmaysanmusog'inganim bilmaysanmumana yana keldi bahoroppoq qorlar bo'ldi anhorsochi sumbul ko'zi xumor
95,XURSHIDRASULOV_YAXSHILARNIIZLABCHARCHADIMMP3,nonga emas mehrga zormanishonganim xudoga yormannonga emas mehrga zormanishonganim xudoga yormangarchi hayot bog'ida bormanyaxshilarni izlab charchadimgarchi hayot bog'ida bormanyaxshilarni izlab charchadimko'rdim majnun o'pgan davonniko'rdim ishqda rangi samonnidunyo ko'rib ko'rdim yomonniyaxshilarni izlab charchadimdunyo ko'rib ko'rdim yomonniyaxshilarni izlab charchadim
96,DOSTONERGASHEV_ALAMMP3,qalbga zardob bo'lib kelganing alamgohi ochilmasdan so'lganing alamsevgilim sevgilim hammasidan hamsochimga oq tushganda kelganing alamborsam ket deb on haydolmaganingarmoning hech kimga aytolmaganingbuni faqat o'zing bilolmaganingkunda bir ustimdan kulganing alamalam alam alam alamey alamsochimga oq tushganda kelganing alamalam alam alam alamey alambilaturib ustimdan kulganing alam
97,JASMINA_МИЛЫЙМОЙMP3,милый мойвозьми меня с собоймилый мойты же мой золотоймилый мой милый мойqarashlaringdan kulishlaringdanturishlaringdan voy voy voysevganing o'zim jasminang o'zimaqling oladi qop qora ko'zim
98,ABRORDO'STOV_HUSHDANJUDOBUJONIMAMP3,hushdan judo bu jonimabirmas exu davo ko'zingtelba oshiq man beqarorayt ne sifat savdo ko'zingtundan siyoh olganim yocharos ko'zing buncha qaroko'rganni qilar mahliyoko'p alomat balo ko'zingko'cha kuyda ko'rib qolsamtilga kelmas kalima hamko'cha kuyda ko'rib qolsambir zum ko'zlarimni yumsamsur'at kabi paydo ko'zing
99,JONIBEK_BIRBO'SABERMP3,seni o'zga olib ketsasevgi armon bo'lmaydimimeni rashkda o'ldirmasangseni ko'ngling to'lmaydimioshiqlardek qo'l ushlashibyursak hech kim kulmaydimihiyobonda gul yuzingdano'psam uyat bo'lmaydimibir bo'sa ber kulguchlaringdanlabim kuysin gul yuzlaringdanbir bo'sa ber o'pichlaringdanbir bo'sa ber bir bo'sa ber
100,MUXLISBEKQURBONOV_SHAHARLARGAKETDINGGULIMMP3,taqdir dedik taqdirnida o'yin qildikxayr dedik so'zimizni mayin qildikafsusdamiz pushaymonmiz endi bildikshaharlarga ketding gulimayro tushdi endi yo'limqo'llarimda qoldi gulimming poralar bo'ldi dilimyurak yondi ko'z munchog'imsensiz qoldim nachora manishqda bo'lgan bechoramanaqlim hayron ovvoramansevgan gulim ko'zmunchog'im
101,UMIDMUHAMMADIYEV_BIROVNIKISANMP3,o'zgasin qalbimdan quvdim deyishgao'zgasin qalbimdan yuvdim deyishgabir umr men sizni sevdim deyishgahaqqing yo'q sen endi birovnikisanishqi yo'q devonadesang ham maylirashki yo'q devonadesang ham maylimen sizga begonadesang ham maylijonginam endi senbrovnikisano'zga yor yonida suyganim bilansuratinga ko'ngil qo'yganim bilanhom hayollar surib to'yganim bilanjonginam endi sen brovnikisan
102,AZZAMCHIK_SALAMALEYKUMMP3,qachondir biz yosh edikyosh edik be bosh edikkezar edik ko'chalarnisho'xlik aralash o'yinkuylab sevgimiz kuyineslaymiz yoshlik damlarnisalam aleykumвсем вам добрый вечер patsaninastroylar qaley ishlar nishtyakko'chalarni gulyat qilishga jelaniya qaleyсалам алейкум всем вамдобрый вечер пацанынастройла кале ишлакучалани гулять килишгажелание калехаммаси яхмале йоки галякюлларимиз ёритсин чирок
103,ZIYODA_KULIBQO'YMP3,зиёда - кулиб куйsevgisini o'z qo'li bilanberib qo'yganlar qanchasevib qolmagin desamsevib qolibsan anchaendi chora yo'q bilsang yurakbo'lsang ham parcha parchao'z sevganim endi o'zimgapichoqsiz tig'in sancharo' o' o' o'yonib kuyganman demao' o' o' o'sevib qolganman demao' o' o' o'uni qo'y o'z holigabilganini qilsin endi ukulib qo'y shu joyigaqulayotgan uydir bu qalbimkulga aylandi qo'riseniki edi bilsang bevafobu yuragimni to'riarzimaysan bir bora biroqbitta shirin so'zimgako'zlaringni qarshisida bo'libmandevona cho'ri
104,ISLOMFARMONOV_KO'NGLINGIZNINECHAPULGASOTDINGIZEYMP3,boyvachchani quchog'iga bottingiz eyhiyonatning tamini ham totdingiz eymuhabbatning bozorida savdo qilibko'nglingizni necha pulga sotdingiz eysevgi arzon zamonlarda eh pand yedimont ichsangiz u ham mendek sevar dedimsizni yomon sevgan edim sevgan edimko'nglingizni necha pulga sotdingiz eykambag'alni isxorlarin malol qilibboy sochingiz silasa ham halol bilibbaxtdan kechib otangizni dallol qilibko'nglingizni necha pulga sotdingiz ey
105,SHOXRUZ(ABADIYA)_MASHINASIYO'QMP3,yana yana yuragim seni so'raydiyana yana ko'zlarim seni izlaydinega nega jonim seni unutolmadimyana yana xotiralar meni qiynaydixuddi sendan o'zga go'zal yo'qmidiaytgin shuncha dard alam menga kerakmidio'z qadrimga o'zim yetmadimqaydanam seni sevdimmashinasi yo'q lek yuragi bor oddiy bolamanhali hammasi oldinda edi afsuslanasanmashinasi yo'q lek yuragi bor oddiy bolamanhali hammasi oldinda edi afsuslanasan
106,G'ULOMJONYOQUBOV_ESLAYMANMP3,o'tar umr o'tdi yoshlikmana biz ham ulg'aydikessiz essiz do'stlarimortda qoldi bolaliko'tgan yoshlik yillarnihanuzgacha eslaymanshuncha yillar o'tsa hamsog'inaman qumsaymaneslayman eslaymansog'inaman qumsaymano'tgan yoshlik yillarnisog'inaman qumsayman
107,ULUG'BEKSOBIROV_KO'NIKOLSAMQANIYDIMP3,hayotimga kech keldingunega buncha erta ketdingqayg'u alamlarga tashlabyuragimni sen tark etdingdardlarimni tinglamasdanbir og'iz ham so'zlamasdanortinga ham qayrilmasdanbegonaga o'xshab ketdingjonim endi sensizlikkako'nikolsam qaniydisog'inarman ko'zlaringniunutolsam qaniydisezmayapman keragimniyorim deysan yana kimniyig'layotgan yuragimniovutolsam qaniydi
108,JANOBRASUL_YURAKMP3,жаноб расул - юракbugun seni sog'inib yurakisming dildan qo'ymas yo'q sendan darakkutayapman javobing keraktopolmadim yoqoldingku dom darakqaylardasan qaylardasan malakaytgin yoki bergin o'zingdan darakdevona bo'ldim ishqingdasarsona bo'ldim ishqingdavayrona bo'ldim ishqingda yorko'zlaringda o'zimni ko'rayhayolingda faqat men bo'lay
109,OYBEKAHMEDOV_SEVGIMIZNITEMAQILARMP3,mahallada gap oralarko'rolmas ichi qoralarsevgimizni tema qilaro'sha g'iybatchi xolalarkelgin endi to'y qilaylikg'iybatlarni bas qilaylikborib zaks binosiganikoh uchun arz qilaylikbarmog'ingga uzuk olaygo'zal dasta gulni olayg'iybatchilar ko'rib qo'ysinkuyov navkar olib boraykutib olgin oq libosdabo'yimiz ham qara mosdado'stu dushmanlar oldidabaxtli bo'laylik prostabir bo'sa berbitta bo'sa ber lablaringdanbir bo'sa berbitta bo'sa ber yuzlaringdan
110,FIRUZRUZMETOV_ATIRGULMP3,bir gul ko'rdim hayolimdan ketmadiolay desam netay pulim yetmadiqimmat gulning tikonlari ko'p ekantutgan qo'lim yaralari bitmadibozorlarga solib solib sotaymibog'ingizdan yulib yulib otaymichinni gulga rosa katta ketibsizustingizdan lola gullar sochaymibor boraver bor boraver atirgulket ketaver ket ketaver atirgultog' bag'rida kutar meni lolalarqo'lim tegsa chaqib olgan atirgulbinafshalar senga havas qilardiko'nglim sendaligin lola bilardiiforlarlaring qumsab yoninga borsamnayzalaring qo'llarimni tilardi
111,RAHIMIY_YAXSHISINITOPINGENDIYORMP3,unutildi vadalar bugunmenga eshik yoping endi yoryomon edim faqat siz uchunyaxshisini toping endi yorjonim sizga qilsamda tortiqbo'laverdim ko'p yomon otliqmayli endi bizlardan ortiqyaxshsini toping endi yoryaxshisini mendan kechibyomg'irlarning loylariga tashlading yormendan kechib mendan kechibsoxtalarning vadasiga aldanding yorko'nglingizni bilmadim balkichaqirsangiz kelmadim balkisizga loyiq bo'lmadim balkiyaxshisini toping endi yor
112,ISMAIL_OQATIRGULLAR(PIANOVERSION)MP3,esingdami yomg'ir yog'ganida sayr qilganimizo'sha uni bu yomg'irlar hecham tinmagandio'shal kunda qolib ketdi go'zal xotiralarimizfaqat yuraklar ko'nmadiyeyendi sandagi iforlar boshqasidan kelarmikanbu yurak sani sevganday yana sevarmikansog'indim sani ey chiroyli gulginamavayron bu ko'ngillar sansizlikka ko'narmikanunga oq atirgullar yoqardidaasali bor edi uni lablaridaaytolmaydi uyaladi asalchamda uhamon bo’lsam kerak uni yuragidasiyrating hayolimdan ketmaganbizni muhabbat hali yakuniga yetmaganyakuniga yetgan sevgi sevgi bo'larmidibunday sevgi hali bu shaharda bo'lmaganbu yarim ko'nglim u bilan to'lar edibu yuragim faqat u bilan kular edisevar edi bu yuragim uni qattiq sevar edivisoling maxshar kuni nasib qilarmikanunga oq atirgullar yoqardidaasali bor edi uni lablaridaaytolmaydi uyaladi asalchamda uhamon bo’lsam kerak uni yuragida
113,ABRORDO'STOV_MAKTUBMP3,bugun senga maktub yozdimsocharingdek uzun uzunko'nglidagi gaplarimniyozdim faqat sening uchunko'zlaringa jim termulibaytolmagan so'zlarimniyozaverdim ichim yulibuzmay sira ko'zlarimniey yor nozli dildorjovobinga men intizorey yor ko'zi humorjavob bergin endi bir borbu kechada mening dardimbilgan qog'oz qalam bo'ldinima qilay yonginamdayeyyo'qliging yor alam bo'ldi
114,BEKXAN_YAQINDATO'YMP3,kayfiyat qale voydodqizla mani sevadi dodatirlar sepib sochin tepaga taralgansoat taqilgan qo'llarcho'ntaginda pullargo'yoku bu qizlar manisevish uchun yaralganyaqinda to'yimiz bo'ladibutun shahar butun citybutun olam bizga havas qiladi
115,OZODANURSAIDOVA_KO'KJIGULIMP3,hali hamon yodimdaqolgin deding yonimdaseni jondan sevgandimeng gullagan onimdako'k jiguli ko'k jigulieslatadi sevgimiznieh jiguliqo'shni guliqizg'onadi senimendan u guli
116,"UZMIR,MIRA_QORLARYOGARMP3",узмир & мира - корлар ёгарqorlar yog'ar ortidan dardlar yog'aryomg'ir yog'ar unga qo'shilibsabrim to'lar tunlarim sensiz bo'larqadrim bilar ketsam unutibqorlardek erib ketaman endi seni deyayonimda qolishinga nima yetmadi feyaqara hayotimga ham kirib oldi nechasidardlarim oshkor bo'lib sog'inaman kechasi
117,DILDORANIYOZOVA_YUGURMP3,yuguryor xafa qilding yoringni yoringnibo'lmada buncha zolimko'rmaysanmi ahvolimko'nglimni olishga ulgurulgur o'zgalar bo'lmas yoringday yoringdayo'zgachaman netamantan ol ahir bittamanyurma yor yonimda yugurozorlaringdan to'ymasin ko'ngilsendan o'zgani suymasin ko'ngilaldovlaringdan yolg'onlaringdanmuhabbatingdan kuymasin ko'ngil
118,AFRUZA_KECHAGINAOQSHOMLARIMP3,kechagina oqshomlarioy to'lib nur sochar edig'unchalarga noming aytsamqizil yuzin ochar ediyonginanga borar bo'lsamshabbodalar qochar edisen olisda men olidabegonamiz endi yorarmonlarga do'st tutingandevonamiz endi yorsuv bo'yiga borar bo'lsamsho'x qarashlar yo'q endidaraxtlarning soyasida
119,XAMDAMSOBIROV&ULUG'BEKYULCHIYEV_SUYGENIMSALAMMP3,suygenim salam kuzleri qarambugun sagat 11 larde uyinga baramjuzleri ayim meni sarim ayimnanga jag'ib jegim keler men seni dayimсуйгеним салам кузлари карамбугун соат 11 ларда уйга барамджуслари айим мени асалим айимнона жагыб джегим мен сени даимsochin taram taramjilab tirnab jarammen senga aytdimgoy 11 larda baramqoyshi qoyshi qoyshi qoyshi
120,YULDUZUSMONOVA_KELKELKELMANIDAYDIYORIMMP3,sog'indim yomonkelgin men tomonsumbul ko'z yoshitomchilar yomonlolalar bag'ribo'lmada xazonyonma xislardur omonsevgilim bugunko'ngil oqshomialanga yonsin sevgi gulshanine bo'lsa bo'lsinmayli qolganiyonma xislardur omonkel kel kel mani daydi yorimmani yorim tanti yorim
121,MAHLIYOOMON_SEVGIMIZSAHIFASIMP3,ayt kimlarni debtashlab ketmoqdasanayt kimlarni debyo nimalarni debavzal ko'rmoqdasan o'zga mehrinisevgimiz sahifasiqora qora qora bo'ldibiz qilgan orzularbog'i xazonga to'ldiyuragim azoblardan pora pora bo'ldibularni aslo sezmadi yuraging
